{
  "2023-08-23": "https://indymotion.fr/w/18YPF5QZ7QJcA9T6nSo87E",
  "2023-08-24": "https://indymotion.fr/w/1rynCuJvmRswbP2KLgtuop",
  "2023-08-25": "https://indymotion.fr/w/3FmRQJmR5WnhZqgKm2e4Ya",
  "2023-08-28": "https://indymotion.fr/w/3HP9UdwPybvC8CLaJXLE2i",
  "2023-08-29": "https://indymotion.fr/w/4GeHFiwV23XWfkCDA42EwH",
  "2023-08-30": "https://indymotion.fr/w/5rXQM4FpDeqXh6XkJSpaAJ",
  "2023-08-31": "https://indymotion.fr/w/7AeZiB194BKqowSdyqrBo4",
  "2023-09-01": "https://indymotion.fr/w/7NBFbt59NGUDN37uW1Kn6h",
  "2023-09-02": "https://indymotion.fr/w/7ZN6k7KKG1wab3g9Fh8h1E",
  "2023-09-03": "https://indymotion.fr/w/811dRxXUMHeRk3TzFMUfuL",
  "2023-09-04": "https://indymotion.fr/w/8qc9J2PsncodDSjGiruiru",
  "2023-09-05": "https://indymotion.fr/w/9iwwEkFv6XqZjhHvLZQ5ag",
  "2023-09-06": "https://indymotion.fr/w/9VWSjLge45KqiRgitZ7obC",
  "2023-09-07": "https://indymotion.fr/w/atwRT658GJmqqBi19SxYJu",
  "2023-09-08": "https://indymotion.fr/w/bJytAHj2sab5ENhj771Wq7",
  "2023-09-11": "https://indymotion.fr/w/by8dBRA1i4EjAdhf9EP1Hj",
  "2023-09-12": "https://indymotion.fr/w/bZRkZx8DFnTRXZLctHv24z",
  "2023-09-13": "https://indymotion.fr/w/cmUeJ3uWXzqnH8aP3ZWyts",
  "2023-09-14": "https://indymotion.fr/w/cuHcQwgkNmDRXhKT8tR2Ty",
  "2023-09-15": "https://indymotion.fr/w/cy7DSqqAVNhemSZ4vhzWzR",
  "2023-09-18": "https://indymotion.fr/w/ddjm63CWj4tSUZ4psA1Qyt",
  "2023-09-19": "https://indymotion.fr/w/dDrBmdfa4na7THqf2UZBsE",
  "2023-09-20": "https://indymotion.fr/w/dy8du4pKjXE6umxcmAdLmT",
  "2023-09-21": "https://indymotion.fr/w/eA4SFNYbfF4du4J3t5ocjc",
  "2023-09-22": "https://indymotion.fr/w/emm8R7vgGaVnqsrpPqqHe9",
  "2023-09-25": "https://indymotion.fr/w/f4LNF5rxseG8V1yRFyZy82",
  "2023-09-26": "https://indymotion.fr/w/f7TXMYc5PjRep8Yssa7Gvm",
  "2023-09-27": "https://indymotion.fr/w/f8rtUtc32fDQ9FnLb7wjeF",
  "2023-09-28": "https://indymotion.fr/w/fHyAu7n5pHEMYVEgbbds4G",
  "2023-09-29": "https://indymotion.fr/w/fNPWF1iiuZyzd1K6rNTR5z",
  "2023-10-02": "https://indymotion.fr/w/fSw4eSj7kQRACGDbfTLWWR",
  "2023-10-03": "https://indymotion.fr/w/hDiKqbm3JVbXUX1tTAkFt7",
  "2023-10-04": "https://indymotion.fr/w/hRC4xvR8uZCo9gCrN5x4Ch",
  "2023-10-05": "https://indymotion.fr/w/iFJthhnVyNfjNZ2cLfAQSK",
  "2023-10-06": "https://indymotion.fr/w/j3C47dzkfT9bBhY11CzHzG",
  "2023-10-09": "https://indymotion.fr/w/j7sNkSW1NfXE3ciL9SBTB9",
  "2023-10-10": "https://indymotion.fr/w/jWPJYRnUh8BttPbmgdnqfV",
  "2023-10-11": "https://indymotion.fr/w/kKFA25V4bNSUirH6SmKkY7",
  "2023-10-12": "https://indymotion.fr/w/kVGZboTuEucHo2A5eDMoMB",
  "2023-10-13": "https://indymotion.fr/w/mWB9g1Z6dUt8iVdm8LEF6F",
  "2023-10-16": "https://indymotion.fr/w/nDewVo6UMmFCdKLeTzyGt1",
  "2023-10-17": "https://indymotion.fr/w/o2drPQH2YueZJkGExtEymW",
  "2023-10-18": "https://indymotion.fr/w/oNELa1J19gaics86hxTonK",
  "2023-10-19": "https://indymotion.fr/w/oRea4VyfrTngqEB6W9E87w",
  "2023-10-20": "https://indymotion.fr/w/orJRgHsst8MwNEfpdsF6cA",
  "2023-10-23": "https://indymotion.fr/w/oyNNJHcMLhpyVqiexYKuo9",
  "2023-10-24": "https://indymotion.fr/w/p57yE6d1eV9Yb3LFBGaNfA",
  "2023-10-25": "https://indymotion.fr/w/p7Dg7dzU7ZWsU8xS3KJGH2",
  "2023-10-26": "https://indymotion.fr/w/pfoRM2oTg2AJ9VSr1nxqxN",
  "2023-10-27": "https://indymotion.fr/w/q2wnEbZmmDAazV7dTVbVeS",
  "2023-10-30": "https://indymotion.fr/w/qkFpVZbRE5h5woTrhr2rz9",
  "2023-10-31": "https://indymotion.fr/w/qoYHPe48fbuYbHAKnSGv3n",
  "2023-11-01": "https://indymotion.fr/w/qWWMC6HxhSxT2zCm4j6Kfh",
  "2023-11-02": "https://indymotion.fr/w/rEV1qrdYoTa4FGqQTTAGAt",
  "2023-11-03": "https://indymotion.fr/w/sKAig4Vp4kHUS8tFGdq2QL",
  "2023-11-06": "https://indymotion.fr/w/sVTpHHactff28Zyc1PwDuW",
  "2023-11-07": "https://indymotion.fr/w/tRfNWtaLJ9gUrXMSBFXMRv",
  "2023-11-08": "https://indymotion.fr/w/u4SqW31ntqpQG6oFYMYQWz",
  "2023-11-09": "https://indymotion.fr/w/udj9K5VQrKasNaH6GC3sCW",
  "2023-11-10": "https://indymotion.fr/w/uQyaajrE2TU8eGbNjED2o9",
  "2023-11-13": "https://indymotion.fr/w/v9Epbfk6vsqFxsK7Z1y3Jd",
  "2023-11-14": "https://indymotion.fr/w/vhhRGdaSEVJW5kQnKa4Wzz",
  "2023-11-15": "https://indymotion.fr/w/vvSZVHwZqAcRyKnUCsGgg8",
  "2023-11-16": "https://indymotion.fr/w/wAA4GdKJF3XorcsnxkAvZ7",
  "2023-11-17": "https://indymotion.fr/w/wojwqX2bkp4PWcsSDQhMoE",
  "2023-11-20": "https://indymotion.fr/w/wpaDkJzENJ1vdQmn4pzTgQ",
  "2023-11-21": "https://indymotion.fr/w/wx2DkkjVZY1HRBe8bhh2UQ"
}
